2019-06-11 13:30:44,013 [WARNING]       django.request - Forbidden (Permission denied): /configuracion_telefonia/grupo_horario/crear/
2019-06-11 13:30:44,175 [WARNING]       django.request - Forbidden (Permission denied): /configuracion_telefonia/validacion_fecha_hora/crear/
2019-06-11 13:30:44,346 [WARNING]       django.request - Forbidden (Permission denied): /configuracion_telefonia/grupo_horario/19/editar/
2019-06-11 13:30:44,512 [WARNING]       django.request - Forbidden (Permission denied): /configuracion_telefonia/validacion_fecha_hora/21/editar/
2019-06-11 13:30:44,669 [WARNING]       django.request - Forbidden (Permission denied): /configuracion_telefonia/ivr/crear/
2019-06-11 13:30:44,822 [WARNING]       django.request - Forbidden (Permission denied): /configuracion_telefonia/ruta_entrante/crear/
2019-06-11 13:30:44,979 [WARNING]       django.request - Forbidden (Permission denied): /configuracion_telefonia/ruta_entrante/23/eliminar/
2019-06-11 13:30:45,139 [WARNING]       django.request - Forbidden (Permission denied): /configuracion_telefonia/ivr/25/editar/
2019-06-11 13:30:45,294 [WARNING]       django.request - Forbidden (Permission denied): /configuracion_telefonia/ruta_entrante/25/editar/
2019-06-11 13:30:46,811 [   INFO] ominicontacto_app.models - Seteando campana 29 como ESTADO_BORRADA
2019-06-11 13:30:50,195 [WARNING]       django.request - Forbidden (Permission denied): /configuracion_telefonia/ruta_saliente/crear/
2019-06-11 13:30:50,329 [WARNING]       django.request - Forbidden (Permission denied): /configuracion_telefonia/ruta_saliente/eliminar/16/
2019-06-11 13:30:50,365 [WARNING]       django.request - Forbidden (Permission denied): /configuracion_telefonia/ruta_saliente/eliminar/16/
2019-06-11 13:30:50,374 [WARNING]       django.request - Forbidden (Permission denied): /configuracion_telefonia/ruta_saliente/eliminar/16/
2019-06-11 13:30:50,522 [WARNING]       django.request - Forbidden (Permission denied): /configuracion_telefonia/ruta_saliente/18/editar/
2019-06-11 13:30:51,871 [WARNING]       django.request - Forbidden (Permission denied): /registro/
2019-06-11 13:30:53,195 [   INFO] ominicontacto_app.models - Seteando campana 69 como ESTADO_FINALIZADA
2019-06-11 13:30:54,356 [   INFO] ominicontacto_app.models - Seteando campana 85 como ESTADO_BORRADA
2019-06-11 13:31:02,355 [   INFO] ominicontacto_app.models - Seteando campana 144 como ESTADO_FINALIZADA
2019-06-11 13:31:03,767 [   INFO] ominicontacto_app.models - Seteando campana 164 como ESTADO_BORRADA
2019-06-11 13:31:04,466 [WARNING]       django.request - Forbidden (Permission denied): /campana_preview/176/contacto/obtener/
2019-06-11 13:31:05,257 [WARNING]       django.request - Forbidden (Permission denied): /campana_preview/189/contacto/obtener/
2019-06-11 13:31:16,042 [   INFO] ominicontacto_app.models - Seteando campana 253 como ESTADO_BORRADA
2019-06-11 13:31:17,641 [WARNING]       django.request - Forbidden (Permission denied): /campana_preview/265/contacto/obtener/
2019-06-11 13:31:29,574 [   INFO] ominicontacto_app.models - Seteando base datos contacto 404 como definida
2019-06-11 13:31:29,587 [   INFO] ominicontacto_app.models - Seteando base datos contacto 405 como definida
2019-06-11 13:31:29,597 [   INFO] ominicontacto_app.models - Seteando base datos contacto 406 como definida
2019-06-11 13:31:29,604 [   INFO] ominicontacto_app.models - Seteando base datos contacto 407 como definida
2019-06-11 13:31:29,613 [   INFO] ominicontacto_app.models - Seteando base datos contacto 408 como definida
2019-06-11 13:31:29,654 [   INFO] ominicontacto_app.services.audio_conversor - Se crearan directorios: /dev/shm/.oml-tests-O0dynH/audio_asterisk_predefinido
2019-06-11 13:31:29,963 [   INFO] ominicontacto_app.models - Seteando campana 376 como ESTADO_ACTIVA
2019-06-11 13:31:29,964 [   INFO] ominicontacto_app.models - Seteando campana 377 como ESTADO_ACTIVA
2019-06-11 13:31:29,965 [   INFO] ominicontacto_app.models - Seteando campana 376 como ESTADO_PAUSADA
2019-06-11 13:31:29,966 [   INFO] ominicontacto_app.models - Seteando campana 377 como ESTADO_FINALIZADA
2019-06-11 13:31:29,972 [   INFO] ominicontacto_app.models - Seteando campana 378 como ESTADO_ACTIVA
2019-06-11 13:31:29,974 [   INFO] ominicontacto_app.models - Seteando campana 379 como ESTADO_ACTIVA
2019-06-11 13:31:30,312 [   INFO] ominicontacto_app.models - Seteando campana 386 como ESTADO_ACTIVA
2019-06-11 13:31:30,313 [   INFO] ominicontacto_app.models - Seteando campana 387 como ESTADO_ACTIVA
2019-06-11 13:31:30,314 [   INFO] ominicontacto_app.models - Seteando campana 388 como ESTADO_ACTIVA
2019-06-11 13:31:30,316 [   INFO] ominicontacto_app.models - Seteando campana 386 como ESTADO_PAUSADA
2019-06-11 13:31:30,317 [   INFO] ominicontacto_app.models - Seteando campana 387 como ESTADO_PAUSADA
2019-06-11 13:31:30,318 [   INFO] ominicontacto_app.models - Seteando campana 388 como ESTADO_FINALIZADA
2019-06-11 13:31:31,540 [WARNING]            ParserCsv - El archivo CSV seleccionado posee menos de 2 filas.
2019-06-11 13:31:31,545 [WARNING]            ParserCsv - No se pudo determinar el delimitador del archivo CSV
2019-06-11 13:31:35,557 [   INFO] ominicontacto_app.services.audio_conversor - Se crearan directorios: /dev/shm/.oml-tests-A2Wo93/audio_asterisk_predefinido
2019-06-11 13:31:35,559 [   INFO] ominicontacto_app.services.audio_conversor - Se crearan directorios: /dev/shm/.oml-tests-DnMg67/audio_asterisk_predefinido
2019-06-11 13:31:35,584 [   INFO] ominicontacto_app.models - Seteando base datos contacto 1 como definida
2019-06-11 13:31:35,587 [WARNING] ominicontacto_app.services.base_de_datos_contactos - La extensión .xls no es CSV. 
2019-06-11 13:31:44,123 [   INFO] ominicontacto_app.services.reporte_agente - Generando grafico calificaciones de campana por cliente 
2019-06-11 13:31:44,302 [   INFO] ominicontacto_app.services.reporte_agente - Generando grafico calificaciones de campana por cliente 
2019-06-11 13:31:44,564 [   INFO] ominicontacto_app.services.reporte_agente - Generando grafico calificaciones de campana por cliente 
2019-06-11 13:31:44,748 [   INFO] ominicontacto_app.services.reporte_agente - Generando grafico calificaciones de campana por cliente 
2019-06-11 13:31:44,927 [   INFO] ominicontacto_app.services.reporte_agente - Generando grafico calificaciones de campana por cliente 
2019-06-11 13:31:45,119 [   INFO] ominicontacto_app.services.estadisticas_campana - Generando grafico calificaciones de campana por cliente 
2019-06-11 13:31:45,391 [   INFO] ominicontacto_app.services.estadisticas_campana - Generando grafico calificaciones de campana por cliente 
2019-06-11 13:31:45,626 [WARNING]          py.warnings - /usr/lib/python2.7/site-packages/django/db/models/fields/__init__.py:1453: RuntimeWarning: DateTimeField LlamadaLog.time received a naive datetime (2019-06-11 00:00:00) while time zone support is active.
  RuntimeWarning)

2019-06-11 13:31:45,627 [WARNING]          py.warnings - /usr/lib/python2.7/site-packages/django/db/models/fields/__init__.py:1453: RuntimeWarning: DateTimeField LlamadaLog.time received a naive datetime (2019-06-11 23:59:59.999999) while time zone support is active.
  RuntimeWarning)

2019-06-11 13:31:45,631 [   INFO] ominicontacto_app.services.estadisticas_campana - Generando grafico calificaciones de campana por cliente 
2019-06-11 13:31:46,398 [   INFO] ominicontacto_app.services.estadisticas_campana - Generando grafico calificaciones de campana por cliente 
2019-06-11 13:31:46,896 [   INFO] ominicontacto_app.services.estadisticas_campana - Generando grafico calificaciones de campana por cliente 
2019-06-11 13:31:47,103 [WARNING] ominicontacto_app.services.reporte_campana_calificacion - ArchivoDeReporteCsv: Ya existe archivo CSV de reporte para la campana 645. Archivo: /opt/omnileads/media_root/reporte_campana/645-reporte_calificacion.csv. El archivo sera sobreescrito
2019-06-11 13:31:47,117 [WARNING] ominicontacto_app.services.reporte_respuestas_formulario - ArchivoDeReporteCsv: Ya existe archivo CSV de reporte para la campana 645. Archivo: /opt/omnileads/media_root/reporte_campana/645-reporte_venta.csv. El archivo sera sobreescrito
2019-06-11 13:31:47,280 [WARNING] ominicontacto_app.services.reporte_respuestas_formulario - ArchivoDeReporteCsv: Ya existe archivo CSV de reporte para la campana 646. Archivo: /opt/omnileads/media_root/reporte_campana/646-reporte_venta.csv. El archivo sera sobreescrito
2019-06-11 13:31:47,447 [WARNING] ominicontacto_app.services.reporte_campana_calificacion - ArchivoDeReporteCsv: Ya existe archivo CSV de reporte para la campana 647. Archivo: /opt/omnileads/media_root/reporte_campana/647-reporte_calificacion.csv. El archivo sera sobreescrito
2019-06-11 13:31:47,630 [WARNING]          py.warnings - /usr/lib/python2.7/site-packages/django/db/models/fields/__init__.py:1453: RuntimeWarning: DateTimeField HistoricalCalificacionCliente.history_date received a naive datetime (2019-06-11 00:00:00) while time zone support is active.
  RuntimeWarning)

2019-06-11 13:31:47,630 [WARNING]          py.warnings - /usr/lib/python2.7/site-packages/django/db/models/fields/__init__.py:1453: RuntimeWarning: DateTimeField HistoricalCalificacionCliente.history_date received a naive datetime (2019-06-11 23:59:59.999999) while time zone support is active.
  RuntimeWarning)

2019-06-11 13:31:47,630 [WARNING]          py.warnings - /usr/lib/python2.7/site-packages/django/db/models/fields/__init__.py:1453: RuntimeWarning: DateTimeField CalificacionCliente.fecha received a naive datetime (2019-06-11 00:00:00) while time zone support is active.
  RuntimeWarning)

2019-06-11 13:31:47,631 [WARNING]          py.warnings - /usr/lib/python2.7/site-packages/django/db/models/fields/__init__.py:1453: RuntimeWarning: DateTimeField CalificacionCliente.fecha received a naive datetime (2019-06-11 23:59:59.999999) while time zone support is active.
  RuntimeWarning)

2019-06-11 13:31:47,649 [   INFO] ominicontacto_app.services.estadisticas_campana - Generando grafico calificaciones de campana por cliente 
2019-06-11 13:31:48,236 [   INFO] ominicontacto_app.services.estadisticas_campana - Generando grafico calificaciones de campana por cliente 
2019-06-11 13:31:48,725 [   INFO] ominicontacto_app.services.estadisticas_campana - Generando grafico calificaciones de campana por cliente 
2019-06-11 13:31:49,274 [   INFO] ominicontacto_app.services.estadisticas_campana - Generando grafico calificaciones de campana por cliente 
2019-06-11 13:31:50,056 [   INFO] ominicontacto_app.services.reporte_agente - Generando grafico calificaciones de campana por cliente 
2019-06-11 13:31:50,226 [WARNING] ominicontacto_app.services.reporte_campana_calificacion - ArchivoDeReporteCsv: Ya existe archivo CSV de reporte para la campana 655. Archivo: /opt/omnileads/media_root/reporte_campana/655-reporte_calificacion.csv. El archivo sera sobreescrito
2019-06-11 13:31:50,238 [WARNING] ominicontacto_app.services.reporte_respuestas_formulario - ArchivoDeReporteCsv: Ya existe archivo CSV de reporte para la campana 655. Archivo: /opt/omnileads/media_root/reporte_campana/655-reporte_venta.csv. El archivo sera sobreescrito
2019-06-11 13:31:50,418 [   INFO] ominicontacto_app.services.estadisticas_campana - Generando grafico calificaciones de campana por cliente 
